…
先把有關大學薪資資料選出來，然後ˋ把107年的薪資除以104年的薪資來算比率，挑出比率大於1的職業然後作排序，然後我們可以看到前十名的職業大多是教育類，裡面有4個有關教育類別，還有大多有關銷售的人員跟專業人員。

### 提高超過5%的的職業有哪些?

``` r
#這是R Code Chunk
highsalary<-filter(salary,rate>1.05)
highsalaryrank<-arrange(highsalary,desc(rate))  
highsalaryrank
```

    ## # A tibble: 53 x 4
    ##    大職業別                                 大學薪資.x 大學薪資.y  rate
    ##    <chr>                                         <dbl>      <dbl> <dbl>
    ##  1 專業_科學及技術服務業-服務及銷售工作人員      24423      28304  1.16
    ##  2 教育業-服務及銷售工作人員                     24324      27543  1.13
    ##  3 不動產業-技術員及助理專業人員                 27338      30914  1.13
    ##  4 住宿及餐飲業-服務及銷售工作人員               23548      26111  1.11
    ##  5 藝術_娛樂及休閒服務業-事務支援人員            24244      26611  1.10
    ##  6 金融及保險業-技藝_機械設備操作及組裝人員      30074      32997  1.10
    ##  7 教育業                                        25162      27582  1.10
    ##  8 教育業-事務支援人員                           23643      25908  1.10
    ##  9 用水供應及污染整治業-專業人員                 32179      34957  1.09
    ## 10 教育業-專業人員                               26615      28911  1.09
    ## # ... with 43 more rows
…
## 研究所薪資差異

以107年度的資料來看，哪個職業別念研究所最划算呢 (研究所學歷薪資與大學學歷薪資增加比例最多)?

``` r
#這是R Code Chunk
data107$研究所薪資<-as.numeric(gsub("—|…",NA,data107$研究所薪資))
studio107<-select(data107,"大職業別","研究所薪資","大學薪資")
studio107<-studio107[complete.cases(studio107),]
studio107$rate<-studio107$研究所薪資/studio107$大學薪資
studio107rank<-arrange(studio107,desc(rate))
studio107rank
```

    ## # A tibble: 79 x 4
    ##    大職業別                                    研究所薪資 大學薪資  rate
    ##    <chr>                                            <dbl>    <dbl> <dbl>
    ##  1 其他服務業                                       31909    25781  1.24
    ##  2 專業_科學及技術服務業                            35381    29353  1.21
    ##  3 專業_科學及技術服務業-專業人員                   39103    32460  1.20
    ##  4 教育業-事務支援人員                              30827    25908  1.19
    ##  5 出版、影音製作、傳播及資通訊服務業               34503    29143  1.18
    ##  6 其他服務業-事務支援人員                          30830    26115  1.18
    ##  7 出版、影音製作、傳播及資通訊服務業-專業人員      37479    31763  1.18
    ##  8 製造業                                           33916    28777  1.18
    ##  9 工業                                             33893    28850  1.17
    ## 10 工業及服務業                                     33880    28849  1.17
    ## # ... with 69 more rows
…
